<svg xmlns="http://www.w3.org/2000/svg" width="25" height="25" viewBox="0 0 25 25">
  <metadata><?xpacket begin="﻿" id="W5M0MpCehiHzreSzNTczkc9d"?>
<x:xmpmeta xmlns:x="adobe:ns:meta/" x:xmptk="Adobe XMP Core 5.6-c138 79.159824, 2016/09/14-01:09:01        ">
   <rdf:RDF xmlns:rdf="http://www.w3.org/1999/02/22-rdf-syntax-ns#">
      <rdf:Description rdf:about=""/>
   </rdf:RDF>
</x:xmpmeta>
                                                                                                    
                                                                                                    
                                                                                                    
                                                                                                    
                                                                                                    
                                                                                                    
                                                                                                    
                                                                                                    
                                                                                                    
                                                                                                    
                                                                                                    
                                                                                                    
                                                                                                    
                                                                                                    
                                                                                                    
                                                                                                    
                                                                                                    
                                                                                                    
                                                                                                    
                                                                                                    
                           
<?xpacket end="w"?></metadata>
<defs>
    <style>
      .cls-1 {
        fill: #fff;
        fill-rule: evenodd;
      }
    </style>
  </defs>
  <path id="ico_help" class="cls-1" d="M57.5,18A12.5,12.5,0,1,0,70,30.5,12.5,12.5,0,0,0,57.5,18Zm0.906,20.019a1.592,1.592,0,0,1-1.09.42,1.65,1.65,0,0,1-1.116-.414,1.451,1.451,0,0,1-.477-1.158,1.492,1.492,0,0,1,.461-1.111,1.558,1.558,0,0,1,1.132-.451,1.539,1.539,0,0,1,1.562,1.562A1.464,1.464,0,0,1,58.406,38.019Zm3.915-9.707a4.769,4.769,0,0,1-.86,1.158q-0.5.487-1.788,1.641a7.315,7.315,0,0,0-.571.572,2.336,2.336,0,0,0-.32.451,2.2,2.2,0,0,0-.162.409q-0.058.2-.173,0.718A1.167,1.167,0,0,1,57.2,34.35a1.276,1.276,0,0,1-.917-0.356,1.4,1.4,0,0,1-.372-1.059,3.715,3.715,0,0,1,1-2.657,16.559,16.559,0,0,1,1.216-1.159q0.67-.587.969-0.886a3,3,0,0,0,.5-0.666,1.61,1.61,0,0,0,.2-0.8,1.853,1.853,0,0,0-.624-1.415,2.278,2.278,0,0,0-1.609-.577,2.226,2.226,0,0,0-1.7.582,4.63,4.63,0,0,0-.922,1.714,1.39,1.39,0,0,1-1.352,1.185,1.329,1.329,0,0,1-.991-0.414,1.266,1.266,0,0,1-.4-0.9,3.789,3.789,0,0,1,.639-2.018,4.923,4.923,0,0,1,1.866-1.693,5.87,5.87,0,0,1,2.862-.671,6.111,6.111,0,0,1,2.684.561,4.354,4.354,0,0,1,1.8,1.525,3.742,3.742,0,0,1,.634,2.1A3.242,3.242,0,0,1,62.322,28.311Z" transform="translate(-45 -18)"/>
</svg>
