<svg xmlns="http://www.w3.org/2000/svg" width="25" height="25" viewBox="0 0 25 25">
  <metadata><?xpacket begin="﻿" id="W5M0MpCehiHzreSzNTczkc9d"?>
<x:xmpmeta xmlns:x="adobe:ns:meta/" x:xmptk="Adobe XMP Core 5.6-c138 79.159824, 2016/09/14-01:09:01        ">
   <rdf:RDF xmlns:rdf="http://www.w3.org/1999/02/22-rdf-syntax-ns#">
      <rdf:Description rdf:about=""/>
   </rdf:RDF>
</x:xmpmeta>
                                                                                                    
                                                                                                    
                                                                                                    
                                                                                                    
                                                                                                    
                                                                                                    
                                                                                                    
                                                                                                    
                                                                                                    
                                                                                                    
                                                                                                    
                                                                                                    
                                                                                                    
                                                                                                    
                                                                                                    
                                                                                                    
                                                                                                    
                                                                                                    
                                                                                                    
                                                                                                    
                           
<?xpacket end="w"?></metadata>
<defs>
    <style>
      .cls-1 {
        fill: #fff;
        fill-rule: evenodd;
      }
    </style>
  </defs>
  <path id="Comments_Edit" data-name="Comments Edit" class="cls-1" d="M1251.5,18c-6.9,0-12.5,4.576-12.5,10.221,0,4.375,3.36,8.108,8.09,9.566v5.2l0.03-.029-0.03.044s5.4-2.9,5.97-3.491l1.3-1.336c5.53-1.058,9.64-5.112,9.64-9.952C1264,22.576,1258.4,18,1251.5,18Zm9.36,12.408-1.02,1.052-1.56-1.606,1.02-1.052a0.723,0.723,0,0,1,1.04,0l0.52,0.535A0.768,0.768,0,0,1,1260.86,30.408Zm-8.72-3.43a5.9,5.9,0,0,1,.8-1.518,4.448,4.448,0,0,1,1.06-1.026,1.913,1.913,0,0,1,1.02-.378,0.79,0.79,0,0,1,.62.237,0.986,0.986,0,0,1-.26,1.467,3.368,3.368,0,0,0-1.04.878,2.529,2.529,0,0,0-.42,1.25h0.16a1.771,1.771,0,0,1,1.27.557,1.9,1.9,0,0,1,.56,1.391,1.842,1.842,0,0,1-.56,1.358,1.941,1.941,0,0,1-1.4.551,1.841,1.841,0,0,1-1.52-.769,3.4,3.4,0,0,1-.6-2.14A5.422,5.422,0,0,1,1252.14,26.979Zm-5.18,3.992a3.283,3.283,0,0,1-.61-2.134,5.49,5.49,0,0,1,.53-2.377,5.289,5.289,0,0,1,1.3-1.755,2.232,2.232,0,0,1,1.36-.647,0.794,0.794,0,0,1,.62.243,0.96,0.96,0,0,1-.26,1.461,3.3,3.3,0,0,0-1.04.872,2.2,2.2,0,0,0-.44,1.256h0.17a1.776,1.776,0,0,1,1.28.557,1.867,1.867,0,0,1,.57,1.391,1.769,1.769,0,0,1-.57,1.352,1.963,1.963,0,0,1-1.4.532A1.853,1.853,0,0,1,1246.96,30.971Zm6.19,7.384-0.61.62c-0.28.294-3.64,2.163-3.64,2.163l0.03-.046c0.21-.409,1.79-3.448,2.05-3.723l6.76-6.96,1.56,1.606Z" transform="translate(-1239 -18)"/>
</svg>
