<svg xmlns="http://www.w3.org/2000/svg" width="25" height="25" viewBox="0 0 25 25">
  <metadata><?xpacket begin="﻿" id="W5M0MpCehiHzreSzNTczkc9d"?>
<x:xmpmeta xmlns:x="adobe:ns:meta/" x:xmptk="Adobe XMP Core 5.6-c138 79.159824, 2016/09/14-01:09:01        ">
   <rdf:RDF xmlns:rdf="http://www.w3.org/1999/02/22-rdf-syntax-ns#">
      <rdf:Description rdf:about=""/>
   </rdf:RDF>
</x:xmpmeta>
                                                                                                    
                                                                                                    
                                                                                                    
                                                                                                    
                                                                                                    
                                                                                                    
                                                                                                    
                                                                                                    
                                                                                                    
                                                                                                    
                                                                                                    
                                                                                                    
                                                                                                    
                                                                                                    
                                                                                                    
                                                                                                    
                                                                                                    
                                                                                                    
                                                                                                    
                                                                                                    
                           
<?xpacket end="w"?></metadata>
<defs>
    <style>
      .cls-1 {
        fill: #ff7900;
        fill-rule: evenodd;
      }
    </style>
  </defs>
  <path id="contact" class="cls-1" d="M180.07,26.088h-0.613C178.093,21.361,174.6,18,170.507,18s-7.587,3.362-8.951,8.089h-0.613A2.942,2.942,0,0,0,158,29.03v2.941a2.942,2.942,0,0,0,2.943,2.941h0.613C162.92,39.639,166.413,43,170.507,43s7.586-3.362,8.95-8.089h0.613a2.942,2.942,0,0,0,2.943-2.941V29.03A2.942,2.942,0,0,0,180.07,26.088Zm-2.728,10.294h-4.754a2.206,2.206,0,1,0,0,1.471h3.934q-0.2.306-.421,0.592a8.4,8.4,0,0,1-2.584,2.286,6.074,6.074,0,0,1-6.02,0,8.374,8.374,0,0,1-2.584-2.286,11.758,11.758,0,0,1-1.819-3.532,14.66,14.66,0,0,1,0-8.826q0.178-.553.4-1.072a1.007,1.007,0,0,1,1.07-.6,12.855,12.855,0,0,1,5.943,2.969,7.7,7.7,0,0,0,7.98,1.285A15,15,0,0,1,178.6,30.5a14.319,14.319,0,0,1-.68,4.414A12.7,12.7,0,0,1,177.342,36.382Z" transform="translate(-158 -18)"/>
</svg>
