<svg id="Calque_1" data-name="Calque 1" xmlns="http://www.w3.org/2000/svg" viewBox="0 0 366.7 160.12">
<defs>
<style>.cls-1{fill:#ee7103;}.cls-2{fill:#eb6708;}.cls-3{fill:#fff;}.cls-4{fill:#ea5b0c;}.cls-5{font-size:38.28px;font-family:HelveticaNeue, Helvetica Neue;}.cls-6{letter-spacing:-0.02em;}</style>
</defs>
<title>Logo_black</title>
<path class="cls-1" d="M365.7,107V43a9.11,9.11,0,0,0-9.29-9.26H268v.63q0,31.77,0,63.53a9.12,9.12,0,0,0,9.16,9.14h12.23v18.3l.55-.52q8.67-8.66,17.32-17.33a1.41,1.41,0,0,1,1.11-.46H365.7Z" transform="translate(1 -0.31)"/>
<path class="cls-2" d="M365.7,107H308.34a1.41,1.41,0,0,0-1.11.46q-8.66,8.67-17.32,17.33l-.55.52V107H277.13A9.12,9.12,0,0,1,268,97.87q0-31.77,0-63.53v-.63h88.45A9.11,9.11,0,0,1,365.7,43v64Z" transform="translate(1 -0.31)"/>
<path class="cls-3" d="M296.26,55.91V84.83a4.51,4.51,0,0,0,0,.52A4.74,4.74,0,0,0,301,89.63h38.39V89.4q0-14.48,0-29a4.48,4.48,0,0,0-.14-1,4.67,4.67,0,0,0-4.63-3.49H296.26Z" transform="translate(1 -0.31)"/>
<path class="cls-3" d="M296.26,55.91h38.38a4.67,4.67,0,0,1,4.63,3.49,4.48,4.48,0,0,1,.14,1q0,14.49,0,29v.23H301a4.74,4.74,0,0,1-4.76-4.28,4.51,4.51,0,0,1,0-.52V55.91Zm4,5.48c0,1.5,0,2.93,0,4.35a.6.6,0,0,0,.2.49q6.09,5.89,12.17,11.79a7.06,7.06,0,0,0,4.6,2.14,6.66,6.66,0,0,0,5.23-1.76q6.39-6.11,12.73-12.25a.5.5,0,0,0,.14-.35c0-1.4,0-2.8,0-4.2a2.5,2.5,0,0,0,0-.25l-.17.15L321.09,75.17a4.59,4.59,0,0,1-2.9,1.38,4.37,4.37,0,0,1-3.57-1.19L300.57,61.65Z" transform="translate(1 -0.31)"/>
<path class="cls-4" d="M300.3,61.39l.27.26,14.05,13.71a4.37,4.37,0,0,0,3.57,1.19,4.59,4.59,0,0,0,2.9-1.38L335.18,61.5l.17-.15a2.5,2.5,0,0,1,0,.25c0,1.4,0,2.8,0,4.2a.5.5,0,0,1-.14.35q-6.36,6.13-12.73,12.25a6.66,6.66,0,0,1-5.23,1.76,7.06,7.06,0,0,1-4.6-2.14q-6.07-5.91-12.17-11.79a.6.6,0,0,1-.2-.49C300.31,64.32,300.3,62.89,300.3,61.39Z" transform="translate(1 -0.31)"/><path class="cls-1" d="M284.86,59.25v-.56q0-25.47,0-50.93A7.32,7.32,0,0,0,277.4.31H206.27V51.9a7.32,7.32,0,0,0,7.37,7.35h9.84V74l.44-.42q7-7,13.92-13.94a1.19,1.19,0,0,1,.9-.37h46.12Z" transform="translate(1 -0.31)"/>
<path class="cls-2" d="M284.86,59.25H238.74a1.19,1.19,0,0,0-.9.37q-6.94,7-13.92,13.94l-.44.42V59.25h-9.84a7.32,7.32,0,0,1-7.37-7.35V.31H277.4a7.32,7.32,0,0,1,7.46,7.45q0,25.47,0,50.93Z" transform="translate(1 -0.31)"/><path class="cls-3" d="M228.46,19.76a10.37,10.37,0,0,0,.32,2.53A22.48,22.48,0,0,0,231.13,28,39.32,39.32,0,0,0,236,34.66a45.25,45.25,0,0,0,8.55,7.56,27.58,27.58,0,0,0,6.91,3.45,10.87,10.87,0,0,0,4.52.6,3.27,3.27,0,0,0,2-.84c.93-.91,1.85-1.82,2.75-2.75a9,9,0,0,0,1-1.28,1.42,1.42,0,0,0-.07-1.81,5.19,5.19,0,0,0-.71-.77c-1.31-1.09-2.62-2.18-4-3.23a9.76,9.76,0,0,0-1.6-1,1.68,1.68,0,0,0-1.81.14,4.09,4.09,0,0,0-.53.4c-.74.71-1.48,1.42-2.21,2.14a1.32,1.32,0,0,1-1.22.4,5.56,5.56,0,0,1-1.22-.37A11.48,11.48,0,0,1,246,35.7a46.86,46.86,0,0,1-5.21-5,23.46,23.46,0,0,1-2.61-3.26,6.5,6.5,0,0,1-.95-2,1.56,1.56,0,0,1,.46-1.6c.46-.43.91-.88,1.34-1.34a14.09,14.09,0,0,0,1.11-1.32,1.64,1.64,0,0,0,.14-1.8,5.5,5.5,0,0,0-.53-.95A47.5,47.5,0,0,0,236.14,14,6.82,6.82,0,0,0,235,13a1.34,1.34,0,0,0-1.53,0,5.68,5.68,0,0,0-1,.71c-1,1-2,2.05-3,3.07a3.33,3.33,0,0,0-.67,1A5.23,5.23,0,0,0,228.46,19.76Z" transform="translate(1 -0.31)"/>
<path class="cls-3" d="M228.46,19.76a5.23,5.23,0,0,1,.34-2,3.33,3.33,0,0,1,.67-1c1-1,2-2.06,3-3.07a5.68,5.68,0,0,1,1-.71A1.34,1.34,0,0,1,235,13a6.82,6.82,0,0,1,1.15,1,47.5,47.5,0,0,1,3.57,4.44,5.5,5.5,0,0,1,.53.95,1.64,1.64,0,0,1-.14,1.8A14.09,14.09,0,0,1,239,22.5c-.43.46-.88.91-1.34,1.34a1.56,1.56,0,0,0-.46,1.6,6.5,6.5,0,0,0,.95,2,23.46,23.46,0,0,0,2.61,3.26,46.86,46.86,0,0,0,5.21,5,11.48,11.48,0,0,0,2.49,1.6,5.56,5.56,0,0,0,1.22.37,1.32,1.32,0,0,0,1.22-.4c.73-.72,1.47-1.43,2.21-2.14a4.09,4.09,0,0,1,.53-.4,1.68,1.68,0,0,1,1.81-.14,9.76,9.76,0,0,1,1.6,1c1.34,1,2.65,2.14,4,3.23a5.19,5.19,0,0,1,.71.77,1.42,1.42,0,0,1,.07,1.81,9,9,0,0,1-1,1.28c-.9.93-1.82,1.84-2.75,2.75a3.27,3.27,0,0,1-2,.84,10.87,10.87,0,0,1-4.52-.6,27.58,27.58,0,0,1-6.91-3.45A45.25,45.25,0,0,1,236,34.66,39.32,39.32,0,0,1,231.13,28a22.48,22.48,0,0,1-2.35-5.69A10.37,10.37,0,0,1,228.46,19.76Z" transform="translate(1 -0.31)"/>
<text class="cls-5" transform="translate(0 141.71)">Messaging   Pro<tspan class="cls-6" x="221.92" y="0"></tspan><tspan x="233.98" y="0"></tspan></text></svg>
