<svg xmlns="http://www.w3.org/2000/svg" xmlns:xlink="http://www.w3.org/1999/xlink" width="21" height="21" viewBox="0 0 21 21">
  <defs>
    <style>
      .cls-1 {
        fill: #32c832;
        filter: url(#filter);
      }
    </style>
    <filter id="filter" x="0" y="0" width="21" height="21" filterUnits="userSpaceOnUse">
      <feFlood result="flood" flood-color="#cd3c14"/>
      <feComposite result="composite" operator="in" in2="SourceGraphic"/>
      <feBlend result="blend" in2="SourceGraphic"/>
    </filter>
  </defs>
  <circle id="ico_etat" class="cls-1" cx="10.5" cy="10.5" r="10.5"/>
</svg>
