<svg xmlns="http://www.w3.org/2000/svg" width="35" height="25.219" viewBox="0 0 35 25.219">
  <metadata><?xpacket begin="﻿" id="W5M0MpCehiHzreSzNTczkc9d"?>
<x:xmpmeta xmlns:x="adobe:ns:meta/" x:xmptk="Adobe XMP Core 5.6-c138 79.159824, 2016/09/14-01:09:01        ">
   <rdf:RDF xmlns:rdf="http://www.w3.org/1999/02/22-rdf-syntax-ns#">
      <rdf:Description rdf:about=""/>
   </rdf:RDF>
</x:xmpmeta>
                                                                                                    
                                                                                                    
                                                                                                    
                                                                                                    
                                                                                                    
                                                                                                    
                                                                                                    
                                                                                                    
                                                                                                    
                                                                                                    
                                                                                                    
                                                                                                    
                                                                                                    
                                                                                                    
                                                                                                    
                                                                                                    
                                                                                                    
                                                                                                    
                                                                                                    
                                                                                                    
                           
<?xpacket end="w"?></metadata>
<defs>
    <style>
      .cls-1 {
        fill: #fff;
        fill-rule: evenodd;
      }
    </style>
  </defs>
  <path id="Help_guide" data-name="Help guide" class="cls-1" d="M1329.72,50.076a15.863,15.863,0,0,0-8.23,2.194,15.9,15.9,0,0,0-8.24-2.2h-9.26V70.536a1.845,1.845,0,0,0,1.85,1.844h7.41a11.954,11.954,0,0,1,4.61.855,21.394,21.394,0,0,1,2.87,1.725,1.133,1.133,0,0,0,.76.32,1.17,1.17,0,0,0,.76-0.32,21.058,21.058,0,0,1,2.86-1.725,11.954,11.954,0,0,1,4.61-.857h7.41a1.844,1.844,0,0,0,1.85-1.843V50.074Zm7.21,19.258a1.032,1.032,0,0,1-1.03,1.019h-6.18a13.545,13.545,0,0,0-5.41,1.015,23.107,23.107,0,0,0-2.21,1.2,1.184,1.184,0,0,1-1.23,0,23.107,23.107,0,0,0-2.21-1.2,13.545,13.545,0,0,0-5.41-1.015h-6.17a1.026,1.026,0,0,1-1.03-1.019V68.323h7.2a15.9,15.9,0,0,1,8.24,2.2,15.864,15.864,0,0,1,8.23-2.2h7.21v1.009Zm-29.85-15.207h8.23a1.016,1.016,0,1,1,0,2.032h-8.23A1.016,1.016,0,1,1,1307.08,54.127Zm0,4.06h8.23a1.014,1.014,0,1,1,0,2.028h-8.23A1.014,1.014,0,1,1,1307.08,58.187Zm0,4.052h4.11a1.016,1.016,0,1,1,0,2.032h-4.11A1.016,1.016,0,1,1,1307.08,62.239Zm23.82,2.75a1.1,1.1,0,0,1-.75.295,1.134,1.134,0,0,1-.77-0.291,1.028,1.028,0,0,1-.33-0.814,1.068,1.068,0,0,1,.32-0.781,1.056,1.056,0,0,1,.78-0.317,1.012,1.012,0,0,1,.76.317A1.162,1.162,0,0,1,1330.9,64.989Zm2.69-6.821a3.417,3.417,0,0,1-.59.814q-0.345.343-1.23,1.153-0.24.228-.39,0.4a1.655,1.655,0,0,0-.22.317,1.127,1.127,0,0,0-.11.287q-0.045.144-.12,0.5a0.81,0.81,0,0,1-.86.766,0.864,0.864,0,0,1-.63-0.25,1,1,0,0,1-.26-0.744,2.889,2.889,0,0,1,.19-1.072,2.769,2.769,0,0,1,.5-0.8,10.227,10.227,0,0,1,.83-0.814c0.31-.275.53-0.482,0.67-0.622a2.232,2.232,0,0,0,.35-0.468,1.192,1.192,0,0,0,.14-0.56,1.337,1.337,0,0,0-.43-0.995,1.565,1.565,0,0,0-1.11-.405,1.515,1.515,0,0,0-1.17.409,3.235,3.235,0,0,0-.63,1.2,0.956,0.956,0,0,1-.93.833,0.893,0.893,0,0,1-.68-0.291,0.881,0.881,0,0,1-.28-0.63,2.733,2.733,0,0,1,.44-1.418,3.4,3.4,0,0,1,1.28-1.19,3.994,3.994,0,0,1,1.97-.471,4.155,4.155,0,0,1,1.85.394,3.01,3.01,0,0,1,1.23,1.072,2.68,2.68,0,0,1,.44,1.473A2.391,2.391,0,0,1,1333.59,58.168Z" transform="translate(-1304 -50.063)"/>
</svg>
