<svg xmlns="http://www.w3.org/2000/svg" width="35" height="35" viewBox="0 0 35 35">
  <metadata><?xpacket begin="﻿" id="W5M0MpCehiHzreSzNTczkc9d"?>
<x:xmpmeta xmlns:x="adobe:ns:meta/" x:xmptk="Adobe XMP Core 5.6-c138 79.159824, 2016/09/14-01:09:01        ">
   <rdf:RDF xmlns:rdf="http://www.w3.org/1999/02/22-rdf-syntax-ns#">
      <rdf:Description rdf:about=""/>
   </rdf:RDF>
</x:xmpmeta>
                                                                                                    
                                                                                                    
                                                                                                    
                                                                                                    
                                                                                                    
                                                                                                    
                                                                                                    
                                                                                                    
                                                                                                    
                                                                                                    
                                                                                                    
                                                                                                    
                                                                                                    
                                                                                                    
                                                                                                    
                                                                                                    
                                                                                                    
                                                                                                    
                                                                                                    
                                                                                                    
                           
<?xpacket end="w"?></metadata>
<defs>
    <style>
      .cls-1 {
        fill: #fff;
        fill-rule: evenodd;
      }
    </style>
  </defs>
  <path class="cls-1" d="M33.959,6.051L31.724,3.815,28.931,1.02A3.547,3.547,0,0,0,25.943.011l-0.093.014c-0.1.016-.2,0.037-0.3,0.062s-0.2.055-.3,0.09h0A3.541,3.541,0,0,0,23.9,1.02L3.792,21.144,1.45,28.863h0L0.87,30.774,0.052,33.468c-0.008.027-.015,0.053-0.021,0.08,0,0.008,0,.017-0.005.025s-0.007.036-.01,0.054,0,0.02,0,.03,0,0.033-.006.049,0,0.021,0,.031,0,0.032,0,.048,0,0.02,0,.03,0,0.033,0,.049,0,0.019,0,.028,0,0.037.005,0.055,0,0.013,0,.02q0,0.037.012,0.074l0,0.014c0,0.02.009,0.039,0.014,0.058l0.007,0.025c0,0.016.009,0.031,0.014,0.046l0.01,0.027,0.016,0.042L0.1,34.282l0.019,0.041,0.013,0.026L0.151,34.39l0.013,0.022c0.01,0.017.02,0.033,0.031,0.05L0.2,34.474q0.02,0.03.042,0.059l0.013,0.016,0.033,0.04,0.018,0.02L0.34,34.642l0.021,0.02,0.032,0.03,0.022,0.019,0.035,0.029,0.022,0.017,0.04,0.029L0.53,34.8l0.061,0.039,0,0,0.061,0.033,0.022,0.01L0.722,34.9l0.026,0.011,0.043,0.016,0.028,0.009,0.044,0.013L0.89,34.962l0.046,0.011,0.026,0.006,0.055,0.009,0.019,0L1.112,35H1.128l0.053,0H1.188l0.047,0,0.037,0,0.05-.005,0.036,0,0.055-.01,0.031-.006q0.042-.01.084-0.022h0l0.946-.287,3.657-1.111h0l7.714-2.343h0l11.492-11.5,8.619-8.624a3.541,3.541,0,0,0,.97-1.806l0.011-.059q0.027-.144.042-0.29l0-.033Q35,8.734,35,8.571s0,0,0,0A3.547,3.547,0,0,0,33.959,6.051ZM11.333,28.69l1.637,1.638L5.256,32.672,2.327,29.74l2.342-7.719L6.305,23.66,26.417,3.536l0.838,0.838L7.143,24.5,10.5,27.852,30.607,7.728l0.838,0.838Z"/>
</svg>
