<svg xmlns="http://www.w3.org/2000/svg" width="22.94" height="25" viewBox="0 0 22.94 25">
  <metadata><?xpacket begin="﻿" id="W5M0MpCehiHzreSzNTczkc9d"?>
<x:xmpmeta xmlns:x="adobe:ns:meta/" x:xmptk="Adobe XMP Core 5.6-c138 79.159824, 2016/09/14-01:09:01        ">
   <rdf:RDF xmlns:rdf="http://www.w3.org/1999/02/22-rdf-syntax-ns#">
      <rdf:Description rdf:about=""/>
   </rdf:RDF>
</x:xmpmeta>
                                                                                                    
                                                                                                    
                                                                                                    
                                                                                                    
                                                                                                    
                                                                                                    
                                                                                                    
                                                                                                    
                                                                                                    
                                                                                                    
                                                                                                    
                                                                                                    
                                                                                                    
                                                                                                    
                                                                                                    
                                                                                                    
                                                                                                    
                                                                                                    
                                                                                                    
                                                                                                    
                           
<?xpacket end="w"?></metadata>
<defs>
    <style>
      .cls-1 {
        fill-rule: evenodd;
      }
    </style>
  </defs>
  <path id="loupe" class="cls-1" d="M1348.48,51.92l-5.96-6.1a10,10,0,0,0,2.33-6.44,9.658,9.658,0,1,0-9.65,9.889,9.4,9.4,0,0,0,4.53-1.16l6.24,6.382Zm-19.39-12.542a6.112,6.112,0,1,1,6.11,6.256A6.181,6.181,0,0,1,1329.09,39.379Z" transform="translate(-1325.53 -29.5)"/>
</svg>
